<?xml version="1.0" standalone="no"?>
<!DOCTYPE svg PUBLIC "-//W3C//DTD SVG 20010904//EN"
 "http://www.w3.org/TR/2001/REC-SVG-20010904/DTD/svg10.dtd">
<svg version="1.0" xmlns="http://www.w3.org/2000/svg"
 width="1088.000000pt" height="1088.000000pt" viewBox="0 0 1088.000000 1088.000000"
 preserveAspectRatio="xMidYMid meet">
<metadata>
Created by potrace 1.14, written by Peter Selinger 2001-2017
</metadata>
<g transform="translate(0.000000,1088.000000) scale(0.100000,-0.100000)"
fill="#000000" stroke="none">
<path d="M781 10869 c-17 -4 -42 -14 -57 -24 -32 -21 -65 -92 -58 -126 6 -25
43 -107 57 -124 16 -20 107 -178 107 -187 0 -4 5 -8 10 -8 6 0 10 -5 10 -10 0
-10 49 -96 140 -245 13 -22 25 -42 25 -45 1 -6 62 -109 87 -148 10 -15 21 -34
25 -42 18 -39 78 -136 87 -142 6 -4 8 -8 4 -8 -4 0 15 -36 42 -81 28 -44 50
-82 50 -84 0 -1 18 -33 41 -70 22 -37 49 -82 58 -99 10 -17 74 -125 141 -241
68 -115 131 -223 139 -240 9 -16 19 -32 22 -35 3 -3 23 -36 44 -75 21 -38 41
-72 44 -75 4 -3 12 -16 19 -30 6 -14 16 -32 22 -40 34 -53 90 -152 90 -160 0
-6 5 -10 10 -10 6 0 10 -6 10 -12 0 -7 21 -44 45 -83 25 -38 53 -87 62 -107
10 -21 21 -38 25 -38 5 0 8 -4 8 -9 0 -8 159 -285 190 -331 6 -8 13 -22 17
-30 4 -8 22 -38 40 -67 18 -29 33 -57 33 -63 0 -5 5 -10 10 -10 6 0 9 -3 8 -7
-1 -5 5 -19 14 -33 43 -68 178 -303 178 -311 0 -5 5 -9 10 -9 6 0 10 -4 10
-10 0 -10 90 -167 121 -212 10 -15 19 -34 19 -43 0 -8 4 -15 10 -15 5 0 17
-15 25 -32 8 -18 26 -51 40 -73 14 -22 35 -58 47 -80 12 -22 28 -49 35 -60 7
-11 18 -31 25 -45 7 -14 15 -27 18 -30 11 -9 90 -151 90 -161 0 -5 3 -9 8 -9
4 0 12 -10 18 -23 23 -49 198 -342 206 -345 4 -2 6 -7 3 -12 -3 -4 2 -13 10
-20 8 -7 15 -16 15 -21 0 -5 18 -38 40 -74 22 -36 40 -69 40 -74 0 -5 3 -11 8
-13 9 -4 41 -57 49 -80 3 -10 9 -18 14 -18 5 0 9 -6 9 -12 0 -7 17 -40 38 -73
21 -33 45 -75 53 -92 7 -18 16 -33 19 -33 4 0 17 -22 31 -50 13 -27 27 -50 32
-50 4 0 7 -4 7 -9 0 -5 18 -39 40 -75 22 -36 40 -70 40 -76 0 -5 4 -10 9 -10
5 0 11 -8 14 -17 4 -10 20 -40 37 -68 17 -27 36 -61 43 -75 6 -14 14 -27 18
-30 7 -5 59 -106 59 -115 1 -3 9 -24 19 -48 18 -41 32 -100 46 -192 11 -64 12
-205 3 -205 -5 0 -6 -5 -2 -12 12 -19 11 -388 -1 -388 -7 0 -7 -3 0 -8 13 -9
14 -145 1 -154 -7 -5 -7 -8 -1 -8 14 0 14 -150 0 -150 -6 0 -7 -3 0 -8 13 -9
14 -145 1 -154 -7 -5 -7 -8 -1 -8 14 0 14 -150 0 -150 -6 0 -7 -3 0 -8 13 -9
14 -145 1 -154 -7 -5 -7 -8 -1 -8 14 0 14 -150 0 -150 -6 0 -7 -3 0 -8 12 -9
15 -152 2 -152 -4 0 -5 -5 -1 -12 11 -17 11 -388 1 -388 -4 0 -5 -5 -1 -12 11
-17 11 -468 1 -468 -5 0 -5 -5 -1 -12 11 -17 11 -468 1 -468 -5 0 -5 -5 -1
-12 11 -17 11 -468 1 -468 -5 0 -5 -5 -1 -12 11 -17 11 -468 1 -468 -5 0 -5
-5 -2 -11 4 -5 9 -30 11 -55 6 -80 55 -152 128 -192 29 -16 123 -17 1331 -20
1464 -3 1364 -8 1438 72 73 79 68 -89 64 2212 -2 1138 -6 2080 -9 2094 -31
129 -83 238 -239 507 -49 83 -97 167 -107 185 -11 18 -33 57 -51 86 -17 29
-31 57 -31 62 0 6 -4 10 -10 10 -5 0 -10 5 -10 11 0 6 -9 23 -20 39 -11 15
-17 30 -13 34 3 3 2 6 -4 6 -5 0 -18 18 -28 40 -10 22 -22 40 -27 40 -4 0 -8
9 -8 19 0 11 -4 21 -8 23 -10 4 -92 146 -92 159 0 5 -4 9 -10 9 -5 0 -10 4
-10 8 0 8 -212 378 -227 397 -5 6 -15 24 -23 40 -14 28 -85 152 -165 285 -18
30 -44 76 -58 101 -42 77 -52 93 -63 109 -6 8 -23 35 -36 60 -34 60 -59 105
-97 168 -17 29 -31 57 -31 62 0 6 -4 10 -10 10 -5 0 -10 4 -10 9 0 8 -104 193
-130 231 -6 8 -16 27 -23 43 -6 15 -15 27 -19 27 -4 0 -8 5 -8 10 0 6 -11 27
-23 48 -13 20 -35 58 -49 83 -45 80 -53 94 -58 99 -5 5 -13 19 -58 99 -14 25
-36 63 -49 83 -12 21 -23 42 -23 48 0 5 -3 10 -8 10 -4 0 -13 15 -21 33 -8 17
-27 51 -43 75 -15 24 -28 45 -28 48 0 2 -12 23 -27 47 -15 23 -28 44 -28 47
-1 3 -11 21 -23 40 -12 19 -22 41 -22 48 0 6 -3 12 -8 12 -4 0 -18 21 -32 48
-13 26 -27 49 -30 52 -5 5 -17 26 -44 75 -6 11 -15 23 -21 27 -5 4 -6 8 -2 8
5 0 0 12 -11 28 -11 15 -54 88 -97 162 -43 74 -86 149 -95 165 -10 17 -41 71
-70 120 -29 50 -64 110 -78 135 -13 25 -31 52 -38 61 -8 8 -14 19 -14 24 0 5
-26 51 -57 104 -84 140 -91 152 -111 191 -9 19 -23 41 -29 48 -7 7 -13 19 -13
27 0 7 -4 15 -8 17 -4 2 -38 57 -76 123 -102 178 -100 176 -134 231 -18 28
-32 56 -32 63 0 6 -4 11 -10 11 -5 0 -10 7 -10 15 0 8 -5 15 -11 15 -5 0 -8 4
-5 9 3 5 -1 14 -9 21 -8 7 -15 16 -15 20 0 6 -52 97 -105 185 -7 11 -12 23
-11 26 1 7 -84 110 -104 125 -8 7 -26 21 -39 33 -13 12 -30 21 -37 21 -7 0
-17 6 -21 13 -9 14 -52 31 -133 54 -48 14 -206 16 -1312 17 -691 1 -1271 -2
-1287 -5z"/>
<path d="M4505 10861 c-103 -48 -139 -180 -74 -273 11 -14 19 -31 19 -37 0 -6
3 -11 8 -11 4 0 15 -17 25 -37 9 -21 30 -60 47 -88 16 -27 49 -84 72 -125 23
-41 45 -76 50 -78 4 -2 8 -8 8 -14 0 -9 44 -88 89 -158 8 -14 16 -28 16 -32 0
-4 6 -15 12 -25 25 -36 112 -185 125 -214 7 -16 16 -29 19 -29 4 0 13 -15 20
-32 7 -18 26 -52 41 -74 15 -23 28 -47 28 -53 0 -6 4 -11 10 -11 5 0 9 -3 8
-7 -1 -5 5 -19 14 -33 9 -14 51 -86 93 -160 43 -74 85 -148 95 -165 9 -16 32
-57 51 -90 18 -33 37 -61 41 -63 4 -2 8 -8 8 -13 0 -6 32 -63 70 -128 39 -65
70 -121 70 -124 0 -4 12 -23 26 -44 14 -21 30 -47 35 -58 6 -11 15 -29 22 -40
7 -11 39 -68 72 -125 32 -58 62 -107 65 -110 3 -3 14 -23 25 -45 11 -22 22
-42 25 -45 3 -3 11 -16 18 -29 31 -54 54 -93 142 -246 51 -88 103 -178 114
-200 12 -22 25 -44 29 -50 17 -21 105 -175 100 -175 -3 0 1 -7 8 -16 7 -9 18
-25 24 -35 48 -88 180 -315 185 -319 6 -5 16 -22 56 -102 10 -18 23 -40 29
-48 7 -8 26 -40 42 -70 16 -30 41 -73 55 -95 13 -22 40 -67 58 -100 18 -33 55
-97 81 -143 27 -45 49 -87 49 -92 0 -6 3 -10 8 -10 4 0 12 -10 18 -23 19 -39
77 -142 83 -147 10 -8 51 -83 62 -112 6 -16 15 -28 20 -28 5 0 9 -6 9 -12 0
-7 18 -41 40 -76 22 -34 40 -64 40 -66 0 -2 38 -68 84 -147 101 -174 134 -204
224 -204 42 0 67 6 93 23 37 22 86 78 91 103 2 8 6 16 9 19 5 5 54 88 106 180
12 22 52 90 88 151 36 61 65 115 65 120 0 5 4 9 10 9 5 0 9 3 8 8 -1 4 5 18
13 32 40 62 129 222 129 230 0 4 3 10 8 12 9 4 40 56 53 91 6 15 15 27 20 27
5 0 9 4 9 9 0 6 17 38 37 73 47 78 62 105 92 160 13 23 33 56 45 73 11 16 21
34 22 40 1 5 26 51 56 100 30 50 57 97 61 105 4 8 18 33 32 55 14 22 30 49 35
60 5 11 21 38 35 60 13 22 31 54 40 70 8 17 24 44 35 60 11 17 24 40 30 53 5
12 24 46 42 75 18 28 40 66 48 82 8 17 18 32 21 35 4 3 17 25 29 50 12 25 25
47 29 50 3 3 13 18 21 35 8 16 32 58 53 92 20 35 37 67 37 73 0 5 4 10 9 10 5
0 12 11 15 25 4 14 11 25 16 25 6 0 10 4 10 9 0 8 54 105 163 291 11 19 27 49
35 65 9 17 18 32 21 35 7 6 21 30 64 110 16 30 35 62 41 70 6 8 17 26 24 39 8
13 23 40 34 60 11 20 85 148 164 284 79 137 144 252 144 258 0 5 4 9 9 9 5 0
11 8 14 18 3 9 19 40 36 67 16 28 50 86 75 130 26 44 58 100 72 125 15 25 72
124 127 220 55 96 106 178 111 182 6 4 7 8 2 8 -5 0 -4 6 2 13 18 21 184 310
208 362 45 94 23 185 -57 241 l-42 29 -2786 2 c-2700 3 -2787 2 -2826 -16z
m3815 -1144 c30 -18 25 -65 -14 -129 -18 -31 -67 -114 -107 -185 -40 -70 -81
-140 -91 -155 -11 -16 -16 -28 -11 -28 4 0 3 -4 -2 -8 -9 -6 -162 -265 -242
-410 -14 -26 -34 -59 -44 -74 -11 -14 -19 -33 -19 -41 0 -8 -7 -17 -15 -21 -8
-3 -15 -12 -15 -20 0 -8 -6 -21 -13 -28 -7 -7 -28 -42 -46 -78 -19 -36 -38
-70 -43 -76 -17 -23 -178 -307 -178 -315 0 -5 -3 -9 -8 -9 -4 0 -15 -17 -25
-37 -21 -46 -73 -131 -90 -147 -35 -34 -83 -10 -117 59 -14 28 -55 101 -87
152 -7 13 -13 25 -13 28 0 3 -6 13 -15 21 -8 9 -15 22 -15 30 0 8 -4 14 -8 14
-5 0 -14 16 -22 35 -8 19 -17 35 -21 35 -4 0 -9 8 -12 18 -4 9 -18 37 -33 62
-15 25 -35 59 -44 75 -63 110 -82 142 -90 155 -6 8 -16 26 -22 40 -7 14 -26
48 -43 75 -17 28 -36 59 -42 70 -6 11 -43 74 -81 140 -38 66 -78 136 -88 155
-11 19 -21 37 -24 40 -3 3 -11 16 -18 29 -40 70 -57 99 -73 126 -10 17 -24 41
-30 55 -5 13 -13 27 -17 30 -4 3 -13 16 -19 30 -7 14 -24 43 -38 65 -14 22
-28 47 -32 55 -3 8 -16 31 -28 50 -34 55 -39 86 -15 110 20 20 29 20 1006 20
758 0 989 -3 1004 -13z"/>
<path d="M7586 1188 c-71 -9 -151 -45 -188 -84 -61 -63 -70 -78 -67 -100 0 -4
-4 -10 -9 -13 -6 -3 -13 -27 -16 -53 -3 -25 -6 -50 -7 -55 -1 -4 1 -20 5 -34
4 -14 8 -32 10 -41 1 -9 7 -22 14 -30 6 -8 10 -17 7 -20 -7 -7 88 -108 101
-108 5 0 16 -6 22 -12 7 -7 16 -13 20 -14 4 0 14 -3 22 -6 87 -34 190 -32 270
4 56 26 140 92 140 111 0 6 6 18 13 26 17 21 40 99 32 111 -3 5 -1 18 4 28 6
11 7 23 3 27 -4 3 -7 10 -8 13 -4 38 -31 99 -57 130 -52 60 -54 62 -110 87
-71 33 -129 42 -201 33z m171 -79 c90 -50 136 -121 136 -209 0 -92 -14 -125
-78 -186 -47 -45 -110 -68 -185 -69 -147 -2 -272 115 -265 248 3 57 16 107 26
107 5 0 9 6 9 13 0 17 74 89 83 81 4 -4 7 -3 7 3 0 13 23 23 65 30 17 3 31 6
33 8 12 11 137 -8 169 -26z"/>
<path d="M7508 1057 c-2 -6 -3 -86 -3 -177 l1 -165 32 -1 32 -1 0 77 c0 42 2
79 5 82 11 10 57 -5 63 -21 3 -9 8 -18 11 -21 3 -3 20 -25 36 -50 17 -25 35
-49 40 -55 10 -10 65 -18 65 -9 0 3 -21 35 -46 70 -57 83 -60 89 -32 91 32 3
68 50 68 90 0 77 -40 100 -176 102 -65 1 -93 -3 -96 -12z m180 -42 c24 -7 36
-36 27 -64 -9 -29 -66 -42 -140 -32 -8 1 -12 69 -6 101 1 7 94 4 119 -5z"/>
</g>
</svg>
