<svg width="192" height="36" viewBox="0 0 192 36" fill="none" xmlns="http://www.w3.org/2000/svg">
<mask id="mask0_2271_11495" style="mask-type:alpha" maskUnits="userSpaceOnUse" x="0" y="0" width="192" height="36">
<rect width="192" height="36" rx="10" fill="#636466"/>
</mask>
<g mask="url(#mask0_2271_11495)">
<rect width="192" height="36" fill="#A9A9A9"/>
<path d="M18.9713 56.1009V82.5997C18.9713 84.7102 17.6785 86 15.5748 86H-169.889C-171.546 86 -172.733 85.1558 -173.109 83.6667C-173.168 83.4205 -173.18 83.1625 -173.18 82.9046C-173.18 65.5162 -173.203 48.1278 -173.203 30.7394C-173.203 28.2536 -173.803 25.9672 -175.072 23.8098C-180.619 14.4062 -186.131 4.97923 -191.654 -4.43607C-199.987 -18.6235 -208.296 -32.8109 -216.628 -46.9866C-216.91 -47.4791 -217.098 -47.9715 -216.945 -48.5461C-216.722 -49.3903 -216.064 -49.9179 -215.159 -50C-215.006 -50 -214.854 -50 -214.701 -50C-204.124 -50 -40.7777 -50 -30.2006 -50C-27.239 -50 -25.0765 -48.7454 -23.584 -46.1776C-15.5571 -32.3185 -7.49501 -18.4828 0.567093 -4.6354C5.98494 4.68609 11.4028 14.0076 16.8324 23.3174C17.702 24.8182 18.5365 26.3307 18.8185 28.066C18.9243 28.7578 18.9948 29.4613 18.9948 30.1648C19.0065 38.8063 18.9948 47.4477 18.9948 56.0892L18.9713 56.1009Z" fill="#636466"/>
<path d="M390.971 69.1009V95.5997C390.971 97.7102 389.679 99 387.575 99H202.111C200.454 99 199.267 98.1558 198.891 96.6667C198.832 96.4205 198.82 96.1625 198.82 95.9046C198.82 78.5162 198.797 61.1278 198.797 43.7394C198.797 41.2536 198.197 38.9672 196.928 36.8098C191.381 27.4062 185.869 17.9792 180.346 8.56393C172.013 -5.6235 163.704 -19.8109 155.372 -33.9866C155.09 -34.4791 154.902 -34.9715 155.055 -35.5461C155.278 -36.3903 155.936 -36.9179 156.841 -37C156.994 -37 157.146 -37 157.299 -37C167.876 -37 331.222 -37 341.799 -37C344.761 -37 346.923 -35.7454 348.416 -33.1776C356.443 -19.3185 364.505 -5.4828 372.567 8.3646C377.985 17.6861 383.403 27.0076 388.832 36.3174C389.702 37.8182 390.536 39.3307 390.818 41.066C390.924 41.7578 390.995 42.4613 390.995 43.1648C391.007 51.8063 390.995 60.4477 390.995 69.0892L390.971 69.1009Z" fill="#636466"/>
<rect x="31" y="11" width="92" height="3" rx="1.5" fill="white"/>
<rect x="31" y="22" width="48" height="3" rx="1.5" fill="white"/>
</g>
</svg>
